…
```r
activity$date<-ymd(activity$date)
```

We want to found the total number of steps taken each day. 

```r
groupActivity <- group_by(activity, date)
newActivity<-summarize(groupActivity, steps= sum(steps, na.rm = TRUE ))
newActivity
```

```
## # A tibble: 61 x 2
##          date steps
##        <date> <int>
##  1 2012-10-01     0
##  2 2012-10-02   126
##  3 2012-10-03 11352
##  4 2012-10-04 12116
##  5 2012-10-05 13294
##  6 2012-10-06 15420
##  7 2012-10-07 11015
##  8 2012-10-08     0
##  9 2012-10-09 12811
## 10 2012-10-10  9900
## # ... with 51 more rows
```
…
```
## [1] 10395
```

###4. Time series plot of the average number of steps taken
First we fix our dataset and found the average number of steps taken

```r
intervalGroupActivity <- group_by(activity, interval)
averageActivity<-summarize(intervalGroupActivity, steps= mean(steps, na.rm = TRUE ))
averageActivity
```

```
## # A tibble: 288 x 2
##    interval     steps
##       <int>     <dbl>
##  1        0 1.7169811
##  2        5 0.3396226
##  3       10 0.1320755
##  4       15 0.1509434
##  5       20 0.0754717
##  6       25 2.0943396
##  7       30 0.5283019
##  8       35 0.8679245
##  9       40 0.0000000
## 10       45 1.4716981
## # ... with 278 more rows
```
…
3. Make a histogram of the total number of steps taken each day and Calculate and report the mean and median total number of steps taken per day. Do these values differ from the estimates from the first part of the assignment? What is the impact of imputing missing data on the estimates of the total daily number of steps?


```r
groupNewData <- group_by(newData, date)
newFillData<-summarize(groupNewData, steps= sum(steps, na.rm = TRUE ))
newFillData
```

```
## # A tibble: 61 x 2
##          date    steps
##        <date>    <dbl>
##  1 2012-10-01 10766.19
##  2 2012-10-02   126.00
##  3 2012-10-03 11352.00
##  4 2012-10-04 12116.00
##  5 2012-10-05 13294.00
##  6 2012-10-06 15420.00
##  7 2012-10-07 11015.00
##  8 2012-10-08 10766.19
##  9 2012-10-09 12811.00
## 10 2012-10-10  9900.00
## # ... with 51 more rows
```
…
